{
  "broker": {
    "name":"Default Local Broker",
    "host":"127.0.0.1",
    "port":1883,
    "clientId": "ThingsBoard_gateway",
    "security": {
      "type": "basic",
      "username": "",
      "password": ""
    }
  },
  "mapping": [
    {
      "topicFilter": "/hawkeye/data/+",
      "converter": {
        "type": "json",
        "deviceNameJsonExpression": "${serialNumber}",
        "deviceTypeJsonExpression": "${deviceType}",
        "timeout": 60000,
        "attributes": [
          {
            "type": "string",
            "key": "ip_src_host",
            "value": "${ip_src_host}"
          },
          {
            "type": "string",
            "key": "ip_dst_host",
            "value": "${ip_dst_host}"
          },
          {
            "type": "string",
            "key": "dns_qry_name",
            "value": "${dns_qry_name}"
          },
          {
            "type": "string",
            "key": "eth_src",
            "value": "${eth_src}"
          },
          {
            "type": "string",
            "key": "eth_dst",
            "value": "${eth_dst}"
          },
          {
            "type": "string",
            "key": "type",
            "value": "${type}"
          },
          {
            "type": "string",
            "key": "macAddress",
            "value": "${serialNumber}"
          },
          {
            "type": "string",
            "key": "notification_email",
            "value": "${notification_email}"
          },
          {
            "type": "string",
            "key": "ipAddress",
            "value": "${ipAddress}"
          }
        ],
        "timeseries": [
          {
            "type": "int",
            "key": "ts",
            "value": "${ts}"
          },

          {
            "type": "string",
            "key": "ip_src_host",
            "value": "${ip_src_host}"
          },
          {
            "type": "string",
            "key": "ip_dst_host",
            "value": "${ip_dst_host}"
          },
          {
            "type": "string",
            "key": "dns_qry_name",
            "value": "${dns_qry_name}"
          },
          {
            "type": "string",
            "key": "eth_src",
            "value": "${eth_src}"
          },
          {
            "type": "string",
            "key": "eth_dst",
            "value": "${eth_dst}"
          },
          {
            "type": "string",
            "key": "type",
            "value": "${type}"
          },
          {
            "type": "string",
            "key": "macAddress",
            "value": "${serialNumber}"
          }
        ]
      }
    },
    {
      "topicFilter": "/hawkeye/rpc",
      "converter": {
        "type": "json",
        "deviceNameJsonExpression": "${deviceName}",
        "deviceTypeJsonExpression": "RPC-Shell",
        "timeout": 60000,
        "attributes": [
          {
            "type": "boolean",
            "key": "active",
            "value": "${active}"
          },
          {
            "type": "string",
            "key": "version",
            "value": "${version}"
          },
          {
            "type": "string",
            "key": "gatewayName",
            "value": "${gatewayName}"
          },
          {
            "type": "string",
            "key": "ipAddress",
            "value": "${ipAddress}"
          }
        ],
        "timeseries": []
      }
    }
  ],
  "connectRequests": [],
  "disconnectRequests": [],
  "attributeRequests": [],
  "attributeUpdates": [],
  "serverSideRpc": [
    {
      "deviceNameFilter": ".*-RPC*",
      "methodFilter": "wifiConfiguration",
      "requestTopicExpression": "rpc/${deviceName}/request/${methodName}/${requestId}",
      "responseTimeout": 10000,
      "valueExpression": "${params}"
      }
   ]
}
