{
  "ruleChain": {
    "additionalInfo": {
      "description": ""
    },
    "name": "Add Gateway Attribute",
    "firstRuleNodeId": null,
    "root": false,
    "debugMode": true,
    "configuration": null
  },
  "metadata": {
    "firstNodeIndex": 3,
    "nodes": [
      {
        "additionalInfo": {
          "description": "",
          "layoutX": 1113,
          "layoutY": 122
        },
        "type": "org.thingsboard.rule.engine.transform.TbChangeOriginatorNode",
        "name": "ChangeRPCtoGatewayAtrributes",
        "debugMode": true,
        "configuration": {
          "originatorSource": "RELATED",
          "relationsQuery": {
            "fetchLastLevelOnly": true,
            "direction": "TO",
            "maxLevel": 1,
            "filters": [
              {
                "relationType": "Manages",
                "entityTypes": [
                  "DEVICE"
                ]
              }
            ]
          }
        }
      },
      {
        "additionalInfo": {
          "description": "",
          "layoutX": 1417,
          "layoutY": 225
        },
        "type": "org.thingsboard.rule.engine.telemetry.TbMsgAttributesNode",
        "name": "Attributes Save",
        "debugMode": true,
        "configuration": {
          "scope": "SERVER_SCOPE",
          "notifyDevice": true
        }
      },
      {
        "additionalInfo": {
          "description": "",
          "layoutX": 841,
          "layoutY": 247
        },
        "type": "org.thingsboard.rule.engine.transform.TbTransformMsgNode",
        "name": "attribute update",
        "debugMode": true,
        "configuration": {
          "jsScript": "metadata = {\n    \"deviceName\": metadata.deviceName.split(\"-\")[0],\n    //\"deviceName\":\"b8:27:eb:aa:1e:ea\",\n    \"deviceType\": \"hawkeye\",\n    \"notifyDevice\": \"true\"\n};\n\nreturn {msg: msg, metadata: metadata, msgType: msgType};"
        }
      },
      {
        "additionalInfo": {
          "description": "",
          "layoutX": 334,
          "layoutY": 246
        },
        "type": "org.thingsboard.rule.engine.filter.TbOriginatorTypeSwitchNode",
        "name": "RPC Attributes",
        "debugMode": true,
        "configuration": {
          "version": 0
        }
      },
      {
        "additionalInfo": {
          "description": "",
          "layoutX": 588,
          "layoutY": 122
        },
        "type": "org.thingsboard.rule.engine.filter.TbJsFilterNode",
        "name": "Data filter",
        "debugMode": true,
        "configuration": {
          "jsScript": "//return msg.temperature < -40 || msg.temperature > 80;\n//if (metadata.deviceType === \"RPC-Shell\"){\n//if (metadata.deviceName.includes(\"RPC\")){\nvalue = metadata.deviceName;\nif (typeof value == \"string\" && value.indexOf('RPC') > -1){\n    return true;\n}else{\n    return false;\n}"
        }
      }
    ],
    "connections": [
      {
        "fromIndex": 0,
        "toIndex": 1,
        "type": "Success"
      },
      {
        "fromIndex": 2,
        "toIndex": 0,
        "type": "Success"
      },
      {
        "fromIndex": 3,
        "toIndex": 4,
        "type": "Device"
      },
      {
        "fromIndex": 4,
        "toIndex": 2,
        "type": "True"
      }
    ],
    "ruleChainConnections": null
  }
}